Ljava/lang/String;,
Ljava/lang/Float;,
Ljava/lang/Boolean;,
Ljava/lang/Byte;,
Ljava/lang/Character;,
Ljava/lang/Double;,
Ljava/lang/Integer;,
Ljava/lang/Long;,
Ljava/lang/Object;,
Ljava/lang/Class;,
Ljava/lang/Short;,
Ljava/lang/Void;,